<?xml version="1.0" encoding="utf-8"?>
<!-- Generator: Adobe Illustrator 21.0.2, SVG Export Plug-In . SVG Version: 6.00 Build 0)  -->
<svg version="1.1" id="Layer_1" xmlns="http://www.w3.org/2000/svg" xmlns:xlink="http://www.w3.org/1999/xlink" x="0px" y="0px"
	 viewBox="0 0 55.3 55.3" style="enable-background:new 0 0 55.3 55.3;" xml:space="preserve">
<style type="text/css">
	.st0{fill:#05A7B5;}
	.st1{fill:#6D6D6D;}
</style>
<circle class="st0" cx="27.7" cy="27.7" r="27.7"/>
<path class="st1" d="M26,43V20.2l-5.8,4.5l-3.8-5.2L26.7,12h6.7v31H26z"/>
</svg>
