<?xml version="1.0" encoding="utf-8"?>
<!-- Generator: Adobe Illustrator 21.0.2, SVG Export Plug-In . SVG Version: 6.00 Build 0)  -->
<svg version="1.1" id="Layer_1" xmlns="http://www.w3.org/2000/svg" xmlns:xlink="http://www.w3.org/1999/xlink" x="0px" y="0px"
	 viewBox="0 0 55.3 55.3" style="enable-background:new 0 0 55.3 55.3;" xml:space="preserve">
<style type="text/css">
	.st0{fill:#05A7B5;}
	.st1{fill:#6D6D6D;}
</style>
<circle class="st0" cx="27.7" cy="27.7" r="27.7"/>
<path class="st1" d="M27.7,43.7c-5.5,0-10.1-2.9-11.5-7.7l6.5-2c0.6,2.1,2.5,3.6,4.9,3.6c2.4,0,4.5-1.5,4.5-4.4
	c0-3.6-3.2-4.6-6.2-4.6c-2.1,0-5.3,0.6-7.4,1.3l0.7-17.3h18.5v6.1H25.6l-0.3,4.8c0.9-0.2,2.1-0.3,3-0.3c6.1,0,10.9,3.2,10.9,9.6
	C39.3,40.2,33.6,43.7,27.7,43.7z"/>
</svg>
