<?xml version="1.0" encoding="utf-8"?>
<!-- Generator: Adobe Illustrator 21.0.2, SVG Export Plug-In . SVG Version: 6.00 Build 0)  -->
<svg version="1.1" id="Layer_1" xmlns="http://www.w3.org/2000/svg" xmlns:xlink="http://www.w3.org/1999/xlink" x="0px" y="0px"
	 viewBox="0 0 362 296" style="enable-background:new 0 0 362 296;" xml:space="preserve">
<style type="text/css">
	.st0{fill:none;stroke:#6E6E6D;stroke-width:4.8283;stroke-linecap:round;stroke-linejoin:round;stroke-miterlimit:10;}
	.st1{fill:none;stroke:#6E6E6D;stroke-width:4.6398;stroke-linecap:round;stroke-linejoin:round;stroke-miterlimit:10;}
</style>
<path class="st0" d="M6.4,276.4h351.2V21.1c0,0-26.4,0-65.9,0"/>
<path class="st1" d="M308.1,3.8c0.7,0.7,17.6,16.8,17.6,16.8l-16.8,17.7"/>
<path class="st1" d="M255.4,292.3c-0.7-0.7-17.6-16.8-17.6-16.8l16.8-17.7"/>
<path class="st1" d="M23,292.3c-0.7-0.7-17.6-16.8-17.6-16.8l16.8-17.7"/>
</svg>
